<svg class="layer" width="100%" viewBox="0 0 1024 1024" version="1.1" xmlns="http://www.w3.org/2000/svg" xmlns:xlink="http://www.w3.org/1999/xlink">
    <style type="text/css" >
        <![CDATA[
            svg {
                overflow: visible !important;
            }
            a rect {
                stroke: blue;
                stroke-width: 3;
                stroke-opacity: 1;
                fill-opacity: 0.1;
            }
            rect {
                fill-opacity: 0;
            }
            rect:hover {
                fill-opacity: 0.3;
                stroke: red;
                stroke-width: 3;
                stroke-opacity: 1;
            }
            g:hover rect {
                fill-opacity: 0.3;
                stroke: red;
                stroke-width: 3;
                stroke-opacity: 1;
            }
        ]]>
    </style>
    <image width="1024" height="1024" id="layer" xlink:href="/explain/tele.png"></image>
    <!-- add explanation texts here -->
    <rect x="0" y="0" width="64" height="64" class="tooltip" title="<strong>Empty (0)</strong><br>Empty tile, used as an eraser in the map editor."></rect>
    <g>
        <rect x="640" y="64" width="64" height="64" class="tooltip" title="<strong>Teleporter (26)</strong><br>Teleports to Teleporter Exit with Matching number, resets the teleported tees hook."></rect>
        <rect x="640" y="0" width="64" height="64" class="tooltip" title="<strong>Evil Teleporter (10)</strong><br>Teleports to Teleporter Exit with matching number, speed and hooks connected to the tee are lost."></rect>
        <rect x="704" y="64" width="64" height="64" class="tooltip" title="<strong>Teleporter Exit (27)</strong><br>Exit of various teleporters."></rect>
        <rect x="896" y="0" width="64" height="64" class="tooltip" title="<strong>Weapon Teleporter (14)</strong><br>Teleports shots from weapons to Teleporter Exit with matching number."></rect>
        <rect x="960" y="0" width="64" height="64" class="tooltip" title="<strong>Hook Teleporter (15)</strong><br>Teleports hooks to Teleporter Exit with matching number."></rect>
    </g>
    <g>
        <rect x="960" y="192" width="64" height="64" class="tooltip" title="<strong>Evil Checkpoint Teleporter (63)</strong><br>Teleports to Checkpoint Teleporter Exit with the number matching the current checkpoint of the tee, speed and all hooks connected to the tee are lost."></rect>
        <rect x="832" y="64" width="64" height="64" class="tooltip" title="<strong>Checkpoint (29)</strong><br>Sets current checkpoint of tee to the displayed number."></rect>
        <rect x="896" y="64" width="64" height="64" class="tooltip" title="<strong>Checkpoint Teleporter Exit (30)</strong><br>Teleporter exit for Checkpoint Teleporter."></rect>
        <rect x="960" y="64" width="64" height="64" class="tooltip" title="<strong>Checkpoint Teleporter (31)</strong><br>Teleports to Checkpoint Teleporter Exit with the number matching the current checkpoint of the tee, resets the teleported tees hook."></rect>
    </g>
    <rect x="768" y="512" width="256" height="128" class="tooltip" title="<strong>Credits (140)</strong><br>Designer of the entities."></rect>

</svg>
